{
  "type": "service_account",
  "project_id": "tugo-vison-2019-05-02-demo",
  "private_key_id": "01a9e281df6b67e4019c339d808b371db3fdffb1",
  "private_key": "-----BEGIN PRIVATE KEY-----\nMIIEvAIBADANBgkqhkiG9w0BAQEFAASCBKYwggSiAgEAAoIBAQDw/y2F2EhMljFx\no59rRT3zpbuJzgGUpNXhqfxkoTAykDbcTsQonsJYgtGRHCj8d4oSqbwzL2lwiOtA\n9Q8Yr0S8YJvfCfl9nBK05MUr5LLGzZ+K/n+54mcKlRgpkfbHAPH47SS5m5no7ubE\nGJ6A6+SK4zpMdiTbJnRlyuwNYAeHAFzMbdyBqFnNgeplqKv6J4GOvqpQcgmqmaiO\nAWJeK5KPreWWp/0oqslJePuGZ4ZgYdwcyxa7nVqpNz56wBDj1fhGwk8yPyf0xtoS\n8o7nsHtSZN/AXg1FxKbw53KbRsH3jya6N7bjWCGPdOFRwy7nxCLP4iySG7v8bjR1\nuyh7xTb/AgMBAAECggEAV68wvAMugxcelE9JQLlnyg+iBYi70H6NB1dW6rIvHCaW\nn1/VRUZGRfgLEfYh/4Hq7dFuFV2JypU2q2K+hGe45aVs8SDq8sXnlIOsLcU/OtAz\n3Vmt1U9H2HTY3r8p/8wbPkviUdoIjNTnh6/Bc/zgIZx9aLaPwGDkduj3LAKlmntV\ndaiJtCjFqI30s20YuL2ugSyudxvjPM2TYTljgRRcHS0UuWe7ulSotAW1etyhZxs0\nSbZ9Yejp/N1jv2gabRxI8YDY8awYOQn0aKxFutXL60kifIbpDR4jMKEKYe8Fr96+\n0hjrKwYzNgwEmVz3LNHSKPmZrvLbLufoZZOEW5vVwQKBgQD/p28hMNaiEAGGIxQd\nu8q+Uir3EmgXI2bYWmPuSLyM4JX8u1P9IH4sESmNtcwe8V0LFad7VJoPP4aE3gdI\n1QGRpNDBv0lJJOSBRSpMxMOl7mbYnATIltMmO9MIcCsKt6UYq6iVD4sqA0LjUOp2\n8L7GsdICwMYaTl/bHTOMwdKbnwKBgQDxUqqA/YCx8HVwLEXm73sJGOuyQcKtlbcv\nrdYRO3kJbNFlh1tf1B852db58h+odCejzwj90Kbm0aHcHrGGlmV0WED+gRwtc6u0\n4TqEbhqM0zd6jALkFJx95aLe4Tf/n0nNScrdShCD8JBP0XvmbALeimRZF9p/uXeq\ne7vnci+ooQKBgDctqzWttdWawMlzzsawHo0/bNiQ13iPAoaV09W9SzzYyGaZBAKx\nPapDNgXJBDp1e9CFpvVeiDXcTytkRIw6tTD7MrdukuG/nbYs+HlDSrsInpgH7Jxi\nuUYaSW0b0J5qjq6pdiReC3pQ4+HuN/zd7z8xaBOCCf/phJTlU5gAyXUfAoGATV0l\nECk04talr4ph9oD7vpTgqsruMFv42C4wnGGmkeDy2EumfXgxcohlpMd8YrKqKpeq\n2EPV3dWCwGCOpQj+CWhpna2ibOfSOjCiY+YwWMk11fGg06HP8YR2zGEDZM2aCVgI\n0xx1YvbyLMSJpfsmiFVxiiZdg+jfdiYovTAcG0ECgYAXM1WjHa+7mdk6IsuJRKhL\ndBmGhpoSoyn2OefW1Srmt0Vt82jxlSKTUWuz2IDNqWKIcfO733LNSAlR57WZ2ma4\nT+LXeDkjKgP/ZgQx9aMnXjSXIi36nzWefNKJMXRNVrMK4lU5OD88B03hJSRZ/1Tu\nip1GNHykEVXXLIrl7ZtuWA==\n-----END PRIVATE KEY-----\n",
  "client_email": "tugo-demo-20190502@tugo-vison-2019-05-02-demo.iam.gserviceaccount.com",
  "client_id": "100975558555514391502",
  "auth_uri": "https://accounts.google.com/o/oauth2/auth",
  "token_uri": "https://oauth2.googleapis.com/token",
  "auth_provider_x509_cert_url": "https://www.googleapis.com/oauth2/v1/certs",
  "client_x509_cert_url": "https://www.googleapis.com/robot/v1/metadata/x509/tugo-demo-20190502%40tugo-vison-2019-05-02-demo.iam.gserviceaccount.com"
}